Criteo Interview
…
1. Salary change over time

df_rev <- df %>% filter(`Event type` == 'Sales') %>% group_by(Date) %>% mutate(Revenue = sum(`Product Price` * `Product quantity`))  
df_rev

## # A tibble: 22,887 x 19
## # Groups:   Date [363]
##     Timestamp `Timestamp 2` Date       Time  Hours `User ID`   `Cross-device us~
##         <int> <chr>         <date>     <chr> <int> <chr>       <chr>            
##  1 1490565487 26/3/17 21:58 2020-03-26 21:5~    21 55fb30957d~ 2ee51dc1b4e4bc81~
##  2 1490561269 26/3/17 20:47 2020-03-26 20:4~    20 5b5be226c5~ NULL             
##  3 1490557892 26/3/17 19:51 2020-03-26 19:5~    19 13d29a7b8e~ 7810f71660447164~
##  4 1490557892 26/3/17 19:51 2020-03-26 19:5~    19 13d29a7b8e~ 7810f71660447164~
##  5 1490554574 26/3/17 18:56 2020-03-26 18:5~    18 a89a7ecf9c~ dca71cc3e8432fbb~
##  6 1490544340 26/3/17 16:05 2020-03-26 16:0~    16 832d031182~ NULL             
##  7 1490537229 26/3/17 14:07 2020-03-26 14:0~    14 86d6c2394a~ 1c12d7a37b39821d~
##  8 1490537025 26/3/17 14:03 2020-03-26 14:0~    14 832d031182~ NULL             
##  9 1490536428 26/3/17 13:53 2020-03-26 13:5~    13 0ff1d981ed~ 099f50c813ea69ba~
## 10 1490530302 26/3/17 12:11 2020-03-26 12:1~    12 b71a5d49d0~ 8f0a5146e9252fe1~
## # ... with 22,877 more rows, and 12 more variables: Existing client <int>,
## #   Event type <fct>, Product ID <chr>, Product Price <dbl>,
## #   Product quantity <dbl>, Product category <chr>, Environment <chr>,
## #   Device type <chr>, Browser family <chr>, User location <chr>,
## #   Datetime <dttm>, Revenue <dbl>
…
